{
    "TCGA" : {
        "cancer_type" : ["#ff004d","#ffff66","#a4ff52","#0067c6","#7d71e5"], 
        "stage" : ["#a7a5a5","#a4ff52","#ffff66","#ff751a","#ff004d"],
        "gender" : ["#ff0074","#52a4ff"],
        "vital" : ["#33ff88","#a10000","#a7a5a5"],
        "group" : ["#ff004d","#a4ff52","#0067c6","#ffff66","#7d71e5","#ff751a"],
        "race" : ["#ff004d","#a4ff52","#0067c6","#ffff66","#7d71e5","#ff751a"]
    },
    "Aneuploidy" : {
        "cellline" : ["#ff0074","#52a4ff","#a7a5a5"],
        "type" : ["#a4ff52","#ffff66","#ff751a","#ff004d","#a7a5a5"],
        "group" : ["#ff004d","#a4ff52","#0067c6","#ffff66","#7d71e5","#ff751a"]
    },
    "Aneuploidy_public" : {
        "Aneuploidy" : ["#ff004d","#a4ff52","#0067c6","#ffff66","#7d71e5","#ff751a"],
        "Cell_type" : ["#ff004d","#a4ff52","#0067c6","#ffff66","#7d71e5","#ff751a"]
    },
    "Aneuploidy_public_m" : {
        "Aneuploidy" : ["#ff004d","#a4ff52","#0067c6","#ffff66","#7d71e5","#ff751a"],
        "Cell_type" : ["#ff004d","#a4ff52","#0067c6","#ffff66","#7d71e5","#ff751a"]
    },
    "viral" : {
        "group" : ["#ff004d","#a4ff52","#0067c6","#ffff66","#7d71e5","#ff751a"]
    },
    "trisomy" : {
        "group" : ["#ff004d","#a4ff52","#0067c6","#ffff66","#7d71e5","#ff751a"]
    },
    "User_upload" : {
        "group" : ["#ff004d","#a4ff52","#0067c6","#ffff66","#7d71e5","#ff751a"]
    },
    "none" : {
        "project" : ["#ff004d","#a4ff52","#0067c6","#ffff66","#7d71e5","#ff751a"]
    },
    "adrien" : {
        "timing" : ["#ff004d","#a4ff52","#0067c6","#ffff66","#7d71e5","#ff751a"],
        "type" : ["#ff004d","#a4ff52","#0067c6","#ffff66","#7d71e5","#ff751a"]
        
    },
    "DGRP" : {
        "flySex" : ["#FD6C9E","#1E7FCB"],
        "flyKind" : ["#FFD700"],
        "lines" : ["#FFD700","#E67E30","#7FDD4C","#88421D","#79F8F8","#000000","#FEFEFE","#A76726","#82C46C","#912B3B","#F0C300","#AD360E","#884DA7","#303030","#AD4F09","#5A5E6B","#CECECE","#EFEFEF","#7BA05B","#370028","#9D3E0C","#FFCB60","#568203","#1E7FCB","#74D0F1","#A9EAFE","#AE642D","#D1B606","#8B6C42","#C8AD7F","#AFA77B","#F0E36B","#FFF48D","#766F64","#FFE4C4","#856D4D","#4E3D28","#E8D630","#5B3C11","#0000FF","#3A8EBA","#686F8C","#1E7FCB","#5472AE","#5472AE","#048B9A","#26C4EC","#357AB7","#357AB7","#8EA2C6","#8EA2C6","#77B5FE","#22427C","#24445C","#22427C","#318CE7","#003366","#24445C","#00CCCB","#DFF2FF","#2C75FF","#318CE7","#BBD2E1","#80D0D0","#56739A","#24445C","#21177D","#9683EC","#6050DC","#03224C","#24445C","#0F056B","#1B019B","#067790","#6600FF","#1D4851","#318CE7","#318CE7","#0131B4","#008E8E","#425B8A","#25FDE9","#E2BC74","#E7A854","#6D071A","#6B0D0D","#FCDC12","#5B3C11","#6B5731","#842E1B","#614E1A","#3F2204","#CD853F","#CDCD0D","#614B3A","#2F1B0C","#26C4EC","#462E01","#785E2F","#7E5835","#FF5E4D","#7E3300","#960018","#FEC3AC","#FEC3AC","#F4661B","#3A020D","#83A697","#BB0B0B","#357AB7","#FEC3AC","#D0C07A","#FBF2B7","#000010","#806D5A","#8B6C42","#85530F","#FEFEFE","#5A3A22","#DB1702","#F7FF3C","#DF6D14","#B9B276","#845A3B","#BA9B61","#6A455D","#703516","#6A4B21","#C60800","#FDE9E0","#E73E01","#960018","#FDF1B8","#FEE7F0","#FF69B4","#B36700","#00FFFF","#1560BD","#0B1616","#BA9B61","#ED0000","#FEFEE0","#01D758","#BABABA","#EDEDED","#AD4F09","#848484","#FF4901","#99512B","#E6E697","#FFFF6B","#BF3030","#A42424","#C72C48","#F400A1"]

    },
    "FALLEN" : {
        "type" : ["#e50000"]
    },
    "DEGENES" : {
        "timing" : ["#e5c200","#e50000","#e500cd","#3900e5","#0089e5","#00e57e","#44e500"],
        "type" : ["#e50000","#52a4ff"]
    },
    "HEART" : {
        "tissue" : ["#ff751a"],
        "study" : ["#ff004d"]
    }
}