userID,sampleID,folder,subfolder,organism,datetime
mitox,HCT116-21-3-c1,Aneuploidy,,Human,20870519
mitox,HCT116-21-3-c3,Aneuploidy,,Human,20870519
mitox,HCT116-5-4,Aneuploidy,,Human,20870519
mitox,HCT116-5-4-p,Aneuploidy,,Human,20870519
mitox,HCT116-8-3-c3,Aneuploidy,,Human,20870519
mitox,HCT116-8-3-c4,Aneuploidy,,Human,20870519
mitox,RPE-21-3-c1,Aneuploidy,,Human,20870519
mitox,RPE-21-3-c1-p,Aneuploidy,,Human,20870519
mitox,RPE-21-3-c2,Aneuploidy,,Human,20870519
mitox,RPE-5-3-12-3-p,Aneuploidy,,Human,20870519
mitox,RPE1-5-3-12-3,Aneuploidy,,Human,20870519
mitox,TCGA-A7-A0CE,TCGA,BRCA,Human,20870519
mitox,TCGA-A7-A0CH,TCGA,BRCA,Human,20870519
mitox,TCGA-A7-A0D9,TCGA,BRCA,Human,20870519
mitox,TCGA-A7-A0DB,TCGA,BRCA,Human,20870519
mitox,TCGA-A7-A13E,TCGA,BRCA,Human,20870519
mitox,TCGA-A7-A13F,TCGA,BRCA,Human,20870519
mitox,TCGA-A7-A13G,TCGA,BRCA,Human,20870519
mitox,TCGA-AC-A23H,TCGA,BRCA,Human,20870519
mitox,TCGA-AC-A2FB,TCGA,BRCA,Human,20870519
mitox,TCGA-AC-A2FF,TCGA,BRCA,Human,20870519
mitox,TCGA-AC-A2FM,TCGA,BRCA,Human,20870519
mitox,TCGA-BH-A0AU,TCGA,BRCA,Human,20870519
mitox,TCGA-BH-A0AY,TCGA,BRCA,Human,20870519
mitox,TCGA-BH-A0AZ,TCGA,BRCA,Human,20870519
mitox,TCGA-BH-A0B3,TCGA,BRCA,Human,20870519
mitox,TCGA-BH-A0B5,TCGA,BRCA,Human,20870519
mitox,TCGA-BH-A0B7,TCGA,BRCA,Human,20870519
mitox,TCGA-BH-A0B8,TCGA,BRCA,Human,20870519
mitox,TCGA-BH-A0BA,TCGA,BRCA,Human,20870519
mitox,TCGA-BH-A0BC,TCGA,BRCA,Human,20870519
mitox,TCGA-BH-A0BJ,TCGA,BRCA,Human,20870519
mitox,TCGA-BH-A0BM,TCGA,BRCA,Human,20870519
mitox,TCGA-BH-A0BQ,TCGA,BRCA,Human,20870519
mitox,TCGA-BH-A0BS,TCGA,BRCA,Human,20870519
mitox,TCGA-BH-A0BT,TCGA,BRCA,Human,20870519
mitox,TCGA-BH-A0BV,TCGA,BRCA,Human,20870519
mitox,TCGA-BH-A0BW,TCGA,BRCA,Human,20870519
mitox,TCGA-BH-A0BZ,TCGA,BRCA,Human,20870519
mitox,TCGA-BH-A0C0,TCGA,BRCA,Human,20870519
mitox,TCGA-BH-A0C3,TCGA,BRCA,Human,20870519
mitox,TCGA-BH-A0DD,TCGA,BRCA,Human,20870519
mitox,TCGA-BH-A0DG,TCGA,BRCA,Human,20870519
mitox,TCGA-BH-A0DH,TCGA,BRCA,Human,20870519
mitox,TCGA-BH-A0DK,TCGA,BRCA,Human,20870519
mitox,TCGA-BH-A0DL,TCGA,BRCA,Human,20870519
mitox,TCGA-BH-A0DO,TCGA,BRCA,Human,20870519
mitox,TCGA-BH-A0DP,TCGA,BRCA,Human,20870519
mitox,TCGA-BH-A0DQ,TCGA,BRCA,Human,20870519
mitox,TCGA-BH-A0DT,TCGA,BRCA,Human,20870519
mitox,TCGA-BH-A0DV,TCGA,BRCA,Human,20870519
mitox,TCGA-BH-A0DZ,TCGA,BRCA,Human,20870519
mitox,TCGA-BH-A0E0,TCGA,BRCA,Human,20870519
mitox,TCGA-BH-A0E1,TCGA,BRCA,Human,20870519
mitox,TCGA-BH-A0H5,TCGA,BRCA,Human,20870519
mitox,TCGA-BH-A0H7,TCGA,BRCA,Human,20870519
mitox,TCGA-BH-A0H9,TCGA,BRCA,Human,20870519
mitox,TCGA-BH-A0HA,TCGA,BRCA,Human,20870519
mitox,TCGA-BH-A0HK,TCGA,BRCA,Human,20870519
mitox,TCGA-BH-A18J,TCGA,BRCA,Human,20870519
mitox,TCGA-BH-A18K,TCGA,BRCA,Human,20870519
mitox,TCGA-BH-A18L,TCGA,BRCA,Human,20870519
mitox,TCGA-BH-A18M,TCGA,BRCA,Human,20870519
mitox,TCGA-BH-A18N,TCGA,BRCA,Human,20870519
mitox,TCGA-BH-A18P,TCGA,BRCA,Human,20870519
mitox,TCGA-BH-A18Q,TCGA,BRCA,Human,20870519
mitox,TCGA-BH-A18R,TCGA,BRCA,Human,20870519
mitox,TCGA-BH-A18S,TCGA,BRCA,Human,20870519
mitox,TCGA-BH-A18U,TCGA,BRCA,Human,20870519
mitox,TCGA-BH-A18V,TCGA,BRCA,Human,20870519
mitox,TCGA-BH-A1EN,TCGA,BRCA,Human,20870519
mitox,TCGA-BH-A1EO,TCGA,BRCA,Human,20870519
mitox,TCGA-BH-A1ET,TCGA,BRCA,Human,20870519
mitox,TCGA-BH-A1EU,TCGA,BRCA,Human,20870519
mitox,TCGA-BH-A1EV,TCGA,BRCA,Human,20870519
mitox,TCGA-BH-A1EW,TCGA,BRCA,Human,20870519
mitox,TCGA-BH-A1F0,TCGA,BRCA,Human,20870519
mitox,TCGA-BH-A1F2,TCGA,BRCA,Human,20870519
mitox,TCGA-BH-A1F6,TCGA,BRCA,Human,20870519
mitox,TCGA-BH-A1F8,TCGA,BRCA,Human,20870519
mitox,TCGA-BH-A1FB,TCGA,BRCA,Human,20870519
mitox,TCGA-BH-A1FC,TCGA,BRCA,Human,20870519
mitox,TCGA-BH-A1FD,TCGA,BRCA,Human,20870519
mitox,TCGA-BH-A1FE,TCGA,BRCA,Human,20870519
mitox,TCGA-BH-A1FG,TCGA,BRCA,Human,20870519
mitox,TCGA-BH-A1FH,TCGA,BRCA,Human,20870519
mitox,TCGA-BH-A1FJ,TCGA,BRCA,Human,20870519
mitox,TCGA-BH-A1FM,TCGA,BRCA,Human,20870519
mitox,TCGA-BH-A1FN,TCGA,BRCA,Human,20870519
mitox,TCGA-BH-A1FR,TCGA,BRCA,Human,20870519
mitox,TCGA-BH-A1FU,TCGA,BRCA,Human,20870519
mitox,TCGA-BH-A203,TCGA,BRCA,Human,20870519
mitox,TCGA-BH-A204,TCGA,BRCA,Human,20870519
mitox,TCGA-BH-A208,TCGA,BRCA,Human,20870519
mitox,TCGA-BH-A209,TCGA,BRCA,Human,20870519
mitox,TCGA-E2-A153,TCGA,BRCA,Human,20870519
mitox,TCGA-E2-A158,TCGA,BRCA,Human,20870519
mitox,TCGA-E2-A15I,TCGA,BRCA,Human,20870519
mitox,TCGA-E2-A15K,TCGA,BRCA,Human,20870519
mitox,TCGA-E2-A15M,TCGA,BRCA,Human,20870519
mitox,TCGA-E2-A1BC,TCGA,BRCA,Human,20870519
mitox,TCGA-E2-A1IG,TCGA,BRCA,Human,20870519
mitox,TCGA-E2-A1L7,TCGA,BRCA,Human,20870519
mitox,TCGA-E2-A1LB,TCGA,BRCA,Human,20870519
mitox,TCGA-E2-A1LH,TCGA,BRCA,Human,20870519
mitox,TCGA-E2-A1LS,TCGA,BRCA,Human,20870519
mitox,TCGA-E9-A1N4,TCGA,BRCA,Human,20870519
mitox,TCGA-E9-A1N5,TCGA,BRCA,Human,20870519
mitox,TCGA-E9-A1N6,TCGA,BRCA,Human,20870519
mitox,TCGA-E9-A1N9,TCGA,BRCA,Human,20870519
mitox,TCGA-E9-A1NA,TCGA,BRCA,Human,20870519
mitox,TCGA-E9-A1ND,TCGA,BRCA,Human,20870519
mitox,TCGA-E9-A1NF,TCGA,BRCA,Human,20870519
mitox,TCGA-E9-A1NG,TCGA,BRCA,Human,20870519
mitox,TCGA-E9-A1R7,TCGA,BRCA,Human,20870519
mitox,TCGA-E9-A1RB,TCGA,BRCA,Human,20870519
mitox,TCGA-E9-A1RC,TCGA,BRCA,Human,20870519
mitox,TCGA-E9-A1RD,TCGA,BRCA,Human,20870519
mitox,TCGA-E9-A1RF,TCGA,BRCA,Human,20870519
mitox,TCGA-E9-A1RH,TCGA,BRCA,Human,20870519
mitox,TCGA-E9-A1RI,TCGA,BRCA,Human,20870519
mitox,TCGA-GI-A2C8,TCGA,BRCA,Human,20870519
mitox,TCGA-GI-A2C9,TCGA,BRCA,Human,20870519
mitox,TCGA-A3-3358,TCGA,KIRC,Human,20870519
mitox,TCGA-A3-3387,TCGA,KIRC,Human,20870519
mitox,TCGA-B0-4700,TCGA,KIRC,Human,20870519
mitox,TCGA-B0-4712,TCGA,KIRC,Human,20870519
mitox,TCGA-B0-5402,TCGA,KIRC,Human,20870519
mitox,TCGA-B0-5690,TCGA,KIRC,Human,20870519
mitox,TCGA-B0-5691,TCGA,KIRC,Human,20870519
mitox,TCGA-B0-5694,TCGA,KIRC,Human,20870519
mitox,TCGA-B0-5696,TCGA,KIRC,Human,20870519
mitox,TCGA-B0-5697,TCGA,KIRC,Human,20870519
mitox,TCGA-B0-5699,TCGA,KIRC,Human,20870519
mitox,TCGA-B0-5701,TCGA,KIRC,Human,20870519
mitox,TCGA-B0-5703,TCGA,KIRC,Human,20870519
mitox,TCGA-B0-5705,TCGA,KIRC,Human,20870519
mitox,TCGA-B0-5706,TCGA,KIRC,Human,20870519
mitox,TCGA-B0-5709,TCGA,KIRC,Human,20870519
mitox,TCGA-B0-5711,TCGA,KIRC,Human,20870519
mitox,TCGA-B0-5712,TCGA,KIRC,Human,20870519
mitox,TCGA-B2-5636,TCGA,KIRC,Human,20870519
mitox,TCGA-B2-5641,TCGA,KIRC,Human,20870519
mitox,TCGA-B8-4619,TCGA,KIRC,Human,20870519
mitox,TCGA-B8-4620,TCGA,KIRC,Human,20870519
mitox,TCGA-B8-4622,TCGA,KIRC,Human,20870519
mitox,TCGA-B8-5549,TCGA,KIRC,Human,20870519
mitox,TCGA-B8-5552,TCGA,KIRC,Human,20870519
mitox,TCGA-CJ-5672,TCGA,KIRC,Human,20870519
mitox,TCGA-CJ-5676,TCGA,KIRC,Human,20870519
mitox,TCGA-CJ-5677,TCGA,KIRC,Human,20870519
mitox,TCGA-CJ-5678,TCGA,KIRC,Human,20870519
mitox,TCGA-CJ-5679,TCGA,KIRC,Human,20870519
mitox,TCGA-CJ-5680,TCGA,KIRC,Human,20870519
mitox,TCGA-CJ-5681,TCGA,KIRC,Human,20870519
mitox,TCGA-CJ-5689,TCGA,KIRC,Human,20870519
mitox,TCGA-CJ-6030,TCGA,KIRC,Human,20870519
mitox,TCGA-CJ-6033,TCGA,KIRC,Human,20870519
mitox,TCGA-CW-5580,TCGA,KIRC,Human,20870519
mitox,TCGA-CW-5581,TCGA,KIRC,Human,20870519
mitox,TCGA-CW-5584,TCGA,KIRC,Human,20870519
mitox,TCGA-CW-5585,TCGA,KIRC,Human,20870519
mitox,TCGA-CW-5587,TCGA,KIRC,Human,20870519
mitox,TCGA-CW-5589,TCGA,KIRC,Human,20870519
mitox,TCGA-CW-5591,TCGA,KIRC,Human,20870519
mitox,TCGA-CW-6087,TCGA,KIRC,Human,20870519
mitox,TCGA-CW-6088,TCGA,KIRC,Human,20870519
mitox,TCGA-CW-6090,TCGA,KIRC,Human,20870519
mitox,TCGA-CZ-4863,TCGA,KIRC,Human,20870519
mitox,TCGA-CZ-4864,TCGA,KIRC,Human,20870519
mitox,TCGA-CZ-4865,TCGA,KIRC,Human,20870519
mitox,TCGA-CZ-5451,TCGA,KIRC,Human,20870519
mitox,TCGA-CZ-5452,TCGA,KIRC,Human,20870519
mitox,TCGA-CZ-5453,TCGA,KIRC,Human,20870519
mitox,TCGA-CZ-5454,TCGA,KIRC,Human,20870519
mitox,TCGA-CZ-5455,TCGA,KIRC,Human,20870519
mitox,TCGA-CZ-5456,TCGA,KIRC,Human,20870519
mitox,TCGA-CZ-5457,TCGA,KIRC,Human,20870519
mitox,TCGA-CZ-5458,TCGA,KIRC,Human,20870519
mitox,TCGA-CZ-5461,TCGA,KIRC,Human,20870519
mitox,TCGA-CZ-5462,TCGA,KIRC,Human,20870519
mitox,TCGA-CZ-5463,TCGA,KIRC,Human,20870519
mitox,TCGA-CZ-5465,TCGA,KIRC,Human,20870519
mitox,TCGA-CZ-5466,TCGA,KIRC,Human,20870519
mitox,TCGA-CZ-5467,TCGA,KIRC,Human,20870519
mitox,TCGA-CZ-5468,TCGA,KIRC,Human,20870519
mitox,TCGA-CZ-5469,TCGA,KIRC,Human,20870519
mitox,TCGA-CZ-5470,TCGA,KIRC,Human,20870519
mitox,TCGA-CZ-5982,TCGA,KIRC,Human,20870519
mitox,TCGA-CZ-5984,TCGA,KIRC,Human,20870519
mitox,TCGA-CZ-5985,TCGA,KIRC,Human,20870519
mitox,TCGA-CZ-5986,TCGA,KIRC,Human,20870519
mitox,TCGA-CZ-5987,TCGA,KIRC,Human,20870519
mitox,TCGA-CZ-5988,TCGA,KIRC,Human,20870519
mitox,TCGA-CZ-5989,TCGA,KIRC,Human,20870519
mitox,TCGA-BC-A10Q,TCGA,LIHC,Human,20870519
mitox,TCGA-BC-A10R,TCGA,LIHC,Human,20870519
mitox,TCGA-BC-A10T,TCGA,LIHC,Human,20870519
mitox,TCGA-BC-A10U,TCGA,LIHC,Human,20870519
mitox,TCGA-BC-A10W,TCGA,LIHC,Human,20870519
mitox,TCGA-BC-A10X,TCGA,LIHC,Human,20870519
mitox,TCGA-BC-A10Y,TCGA,LIHC,Human,20870519
mitox,TCGA-BC-A10Z,TCGA,LIHC,Human,20870519
mitox,TCGA-BC-A110,TCGA,LIHC,Human,20870519
mitox,TCGA-BC-A216,TCGA,LIHC,Human,20870519
mitox,TCGA-BD-A2L6,TCGA,LIHC,Human,20870519
mitox,TCGA-BD-A3EP,TCGA,LIHC,Human,20870519
mitox,TCGA-DD-A113,TCGA,LIHC,Human,20870519
mitox,TCGA-DD-A114,TCGA,LIHC,Human,20870519
mitox,TCGA-DD-A116,TCGA,LIHC,Human,20870519
mitox,TCGA-DD-A118,TCGA,LIHC,Human,20870519
mitox,TCGA-DD-A119,TCGA,LIHC,Human,20870519
mitox,TCGA-DD-A11A,TCGA,LIHC,Human,20870519
mitox,TCGA-DD-A11B,TCGA,LIHC,Human,20870519
mitox,TCGA-DD-A11C,TCGA,LIHC,Human,20870519
mitox,TCGA-DD-A11D,TCGA,LIHC,Human,20870519
mitox,TCGA-DD-A1EB,TCGA,LIHC,Human,20870519
mitox,TCGA-DD-A1EC,TCGA,LIHC,Human,20870519
mitox,TCGA-DD-A1EE,TCGA,LIHC,Human,20870519
mitox,TCGA-DD-A1EG,TCGA,LIHC,Human,20870519
mitox,TCGA-DD-A1EH,TCGA,LIHC,Human,20870519
mitox,TCGA-DD-A1EI,TCGA,LIHC,Human,20870519
mitox,TCGA-DD-A1EJ,TCGA,LIHC,Human,20870519
mitox,TCGA-DD-A1EL,TCGA,LIHC,Human,20870519
mitox,TCGA-DD-A39V,TCGA,LIHC,Human,20870519
mitox,TCGA-DD-A39W,TCGA,LIHC,Human,20870519
mitox,TCGA-DD-A39X,TCGA,LIHC,Human,20870519
mitox,TCGA-DD-A39Z,TCGA,LIHC,Human,20870519
mitox,TCGA-DD-A3A1,TCGA,LIHC,Human,20870519
mitox,TCGA-DD-A3A2,TCGA,LIHC,Human,20870519
mitox,TCGA-DD-A3A3,TCGA,LIHC,Human,20870519
mitox,TCGA-DD-A3A4,TCGA,LIHC,Human,20870519
mitox,TCGA-DD-A3A5,TCGA,LIHC,Human,20870519
mitox,TCGA-DD-A3A6,TCGA,LIHC,Human,20870519
mitox,TCGA-DD-A3A8,TCGA,LIHC,Human,20870519
mitox,TCGA-EP-A12J,TCGA,LIHC,Human,20870519
mitox,TCGA-EP-A26S,TCGA,LIHC,Human,20870519
mitox,TCGA-EP-A3RK,TCGA,LIHC,Human,20870519
mitox,TCGA-ES-A2HT,TCGA,LIHC,Human,20870519
mitox,TCGA-FV-A23B,TCGA,LIHC,Human,20870519
mitox,TCGA-FV-A2QR,TCGA,LIHC,Human,20870519
mitox,TCGA-FV-A3I0,TCGA,LIHC,Human,20870519
mitox,TCGA-FV-A3I1,TCGA,LIHC,Human,20870519
mitox,TCGA-FV-A3R2,TCGA,LIHC,Human,20870519
mitox,TCGA-G3-A3CH,TCGA,LIHC,Human,20870519
mitox,TCGA-CH-5761,TCGA,PRAD,Human,20870519
mitox,TCGA-CH-5767,TCGA,PRAD,Human,20870519
mitox,TCGA-CH-5768,TCGA,PRAD,Human,20870519
mitox,TCGA-CH-5769,TCGA,PRAD,Human,20870519
mitox,TCGA-EJ-7115,TCGA,PRAD,Human,20870519
mitox,TCGA-EJ-7123,TCGA,PRAD,Human,20870519
mitox,TCGA-EJ-7125,TCGA,PRAD,Human,20870519
mitox,TCGA-EJ-7314,TCGA,PRAD,Human,20870519
mitox,TCGA-EJ-7315,TCGA,PRAD,Human,20870519
mitox,TCGA-EJ-7317,TCGA,PRAD,Human,20870519
mitox,TCGA-EJ-7321,TCGA,PRAD,Human,20870519
mitox,TCGA-EJ-7327,TCGA,PRAD,Human,20870519
mitox,TCGA-EJ-7328,TCGA,PRAD,Human,20870519
mitox,TCGA-EJ-7330,TCGA,PRAD,Human,20870519
mitox,TCGA-EJ-7331,TCGA,PRAD,Human,20870519
mitox,TCGA-EJ-7781,TCGA,PRAD,Human,20870519
mitox,TCGA-EJ-7782,TCGA,PRAD,Human,20870519
mitox,TCGA-EJ-7783,TCGA,PRAD,Human,20870519
mitox,TCGA-EJ-7784,TCGA,PRAD,Human,20870519
mitox,TCGA-EJ-7785,TCGA,PRAD,Human,20870519
mitox,TCGA-EJ-7786,TCGA,PRAD,Human,20870519
mitox,TCGA-EJ-7789,TCGA,PRAD,Human,20870519
mitox,TCGA-EJ-7792,TCGA,PRAD,Human,20870519
mitox,TCGA-EJ-7793,TCGA,PRAD,Human,20870519
mitox,TCGA-EJ-7794,TCGA,PRAD,Human,20870519
mitox,TCGA-EJ-7797,TCGA,PRAD,Human,20870519
mitox,TCGA-EJ-A8FO,TCGA,PRAD,Human,20870519
mitox,TCGA-G9-6333,TCGA,PRAD,Human,20870519
mitox,TCGA-G9-6342,TCGA,PRAD,Human,20870519
mitox,TCGA-G9-6348,TCGA,PRAD,Human,20870519
mitox,TCGA-G9-6351,TCGA,PRAD,Human,20870519
mitox,TCGA-G9-6356,TCGA,PRAD,Human,20870519
mitox,TCGA-G9-6362,TCGA,PRAD,Human,20870519
mitox,TCGA-G9-6363,TCGA,PRAD,Human,20870519
mitox,TCGA-G9-6365,TCGA,PRAD,Human,20870519
mitox,TCGA-G9-6384,TCGA,PRAD,Human,20870519
mitox,TCGA-G9-6496,TCGA,PRAD,Human,20870519
mitox,TCGA-G9-6499,TCGA,PRAD,Human,20870519
mitox,TCGA-HC-7211,TCGA,PRAD,Human,20870519
mitox,TCGA-HC-7737,TCGA,PRAD,Human,20870519
mitox,TCGA-HC-7738,TCGA,PRAD,Human,20870519
mitox,TCGA-HC-7740,TCGA,PRAD,Human,20870519
mitox,TCGA-HC-7742,TCGA,PRAD,Human,20870519
mitox,TCGA-HC-7745,TCGA,PRAD,Human,20870519
mitox,TCGA-HC-7747,TCGA,PRAD,Human,20870519
mitox,TCGA-HC-7752,TCGA,PRAD,Human,20870519
mitox,TCGA-HC-7819,TCGA,PRAD,Human,20870519
mitox,TCGA-HC-8258,TCGA,PRAD,Human,20870519
mitox,TCGA-HC-8259,TCGA,PRAD,Human,20870519
mitox,TCGA-HC-8260,TCGA,PRAD,Human,20870519
mitox,TCGA-HC-8262,TCGA,PRAD,Human,20870519
mitox,TCGA-J4-A83J,TCGA,PRAD,Human,20870519
mitox,TCGA-BJ-A28R,TCGA,THCA,Human,20870519
mitox,TCGA-BJ-A28W,TCGA,THCA,Human,20870519
mitox,TCGA-BJ-A28X,TCGA,THCA,Human,20870519
mitox,TCGA-BJ-A290,TCGA,THCA,Human,20870519
mitox,TCGA-BJ-A2N7,TCGA,THCA,Human,20870519
mitox,TCGA-BJ-A2N8,TCGA,THCA,Human,20870519
mitox,TCGA-BJ-A2N9,TCGA,THCA,Human,20870519
mitox,TCGA-BJ-A2NA,TCGA,THCA,Human,20870519
mitox,TCGA-BJ-A3PR,TCGA,THCA,Human,20870519
mitox,TCGA-BJ-A3PU,TCGA,THCA,Human,20870519
mitox,TCGA-DO-A1JZ,TCGA,THCA,Human,20870519
mitox,TCGA-E8-A2JQ,TCGA,THCA,Human,20870519
mitox,TCGA-EL-A3GZ,TCGA,THCA,Human,20870519
mitox,TCGA-EL-A3H1,TCGA,THCA,Human,20870519
mitox,TCGA-EL-A3H2,TCGA,THCA,Human,20870519
mitox,TCGA-EL-A3H7,TCGA,THCA,Human,20870519
mitox,TCGA-EL-A3MW,TCGA,THCA,Human,20870519
mitox,TCGA-EL-A3MX,TCGA,THCA,Human,20870519
mitox,TCGA-EL-A3MY,TCGA,THCA,Human,20870519
mitox,TCGA-EL-A3N2,TCGA,THCA,Human,20870519
mitox,TCGA-EL-A3N3,TCGA,THCA,Human,20870519
mitox,TCGA-EL-A3T0,TCGA,THCA,Human,20870519
mitox,TCGA-EL-A3T1,TCGA,THCA,Human,20870519
mitox,TCGA-EL-A3T2,TCGA,THCA,Human,20870519
mitox,TCGA-EL-A3T3,TCGA,THCA,Human,20870519
mitox,TCGA-EL-A3T6,TCGA,THCA,Human,20870519
mitox,TCGA-EL-A3T7,TCGA,THCA,Human,20870519
mitox,TCGA-EL-A3T8,TCGA,THCA,Human,20870519
mitox,TCGA-EL-A3TA,TCGA,THCA,Human,20870519
mitox,TCGA-EL-A3TB,TCGA,THCA,Human,20870519
mitox,TCGA-EL-A3ZG,TCGA,THCA,Human,20870519
mitox,TCGA-EL-A3ZH,TCGA,THCA,Human,20870519
mitox,TCGA-EL-A3ZK,TCGA,THCA,Human,20870519
mitox,TCGA-EL-A3ZL,TCGA,THCA,Human,20870519
mitox,TCGA-EL-A3ZM,TCGA,THCA,Human,20870519
mitox,TCGA-EL-A3ZO,TCGA,THCA,Human,20870519
mitox,TCGA-EL-A3ZP,TCGA,THCA,Human,20870519
mitox,TCGA-EL-A3ZQ,TCGA,THCA,Human,20870519
mitox,TCGA-EL-A3ZR,TCGA,THCA,Human,20870519
mitox,TCGA-EL-A3ZS,TCGA,THCA,Human,20870519
mitox,TCGA-EL-A3ZT,TCGA,THCA,Human,20870519
mitox,TCGA-EM-A1CS,TCGA,THCA,Human,20870519
mitox,TCGA-EM-A1CT,TCGA,THCA,Human,20870519
mitox,TCGA-EM-A1CU,TCGA,THCA,Human,20870519
mitox,TCGA-EM-A1CV,TCGA,THCA,Human,20870519
mitox,TCGA-EM-A1CW,TCGA,THCA,Human,20870519
mitox,TCGA-EM-A1YC,TCGA,THCA,Human,20870519
mitox,TCGA-EM-A3ST,TCGA,THCA,Human,20870519
mitox,TCGA-ET-A2MX,TCGA,THCA,Human,20870519
mitox,TCGA-ET-A2N5,TCGA,THCA,Human,20870519
mitox,TCGA-ET-A3DP,TCGA,THCA,Human,20870519
mitox,TCGA-ET-A3DW,TCGA,THCA,Human,20870519
mitox,TCGA-FY-A3TY,TCGA,THCA,Human,20870519
mitox,TCGA-GE-A2C6,TCGA,THCA,Human,20870519
mitox,TCGA-H2-A2K9,TCGA,THCA,Human,20870519
mitox,TCGA-H2-A3RI,TCGA,THCA,Human,20870519
mitox,TCGA-KS-A41I,TCGA,THCA,Human,20870519
mitox,TCGA-KS-A41J,TCGA,THCA,Human,20870519
mitox,TCGA-KS-A41L,TCGA,THCA,Human,20870519
