RPE-21-3-c2,ADAMTS1,chr21 28209667 A|G: MODIFIER: 3_prime_UTR_variant
RPE-21-3-c2,AGTRAP,chr1 11810765 T|A: MODIFIER: 3_prime_UTR_variant
RPE-21-3-c2,AIMP1,chr4 107246190 G|C: LOW: synonymous_variant
RPE-21-3-c2,AMIGO2,chr12 47473342 T|C: MODIFIER: 5_prime_UTR_variant
RPE-21-3-c2,AP2M1,chr3 183901281 G|A: LOW: synonymous_variant
RPE-21-3-c2,APOBEC3C,chr22 39414699 C|G: MODIFIER: 3_prime_UTR_variant
RPE-21-3-c2,ARHGAP22,chr10 49783431 G|C: MODIFIER: intron_variant
RPE-21-3-c2,ARMC9,chr2 232196597 G|A: LOW: synonymous_variant
RPE-21-3-c2,ARMCX2,chrX 100911066 C|T: LOW: synonymous_variant
RPE-21-3-c2,ASPSCR1,chr17 79954544 T|A: MODERATE: missense_variant
RPE-21-3-c2,ATG4B,chr2 242612909 A|G: MODIFIER: 3_prime_UTR_variant; chr2 242613133 T|G: MODIFIER: 3_prime_UTR_variant
RPE-21-3-c2,AXL,chr19 41743861 A|G: MODERATE: missense_variant
RPE-21-3-c2,BAIAP2,chr17 79089810 G|A: MODIFIER: 3_prime_UTR_variant
RPE-21-3-c2,C7ORF43,chr7 99752566 G|A: MODIFIER: 3_prime_UTR_variant
RPE-21-3-c2,CACNA1G-AS1,chr17 48629312 G|C: MODIFIER: downstream_gene_variant
RPE-21-3-c2,CALU,chr7 128410630 CA|C: MODIFIER: 3_prime_UTR_variant
RPE-21-3-c2,CAPN10,chr2 241537421 G|A: LOW: synonymous_variant
RPE-21-3-c2,CARHSP1,chr16 8948898 T|G: MODIFIER: 3_prime_UTR_variant
RPE-21-3-c2,CAV2,chr7 116147908 C|G: MODIFIER: 3_prime_UTR_variant
RPE-21-3-c2,CBR3,chr21 37507769 C|T: LOW: synonymous_variant
RPE-21-3-c2,CBS,chr21 44473867 G|C: MODIFIER: 3_prime_UTR_variant
RPE-21-3-c2,CCDC71,chr3 49200137 G|T: MODIFIER: 3_prime_UTR_variant
RPE-21-3-c2,CCL2,chr17 32583911 C|T: MODIFIER: 3_prime_UTR_variant
RPE-21-3-c2,CD59,chr11 33724992 T|C: MODIFIER: 3_prime_UTR_variant
RPE-21-3-c2,CDC42EP2,chr11 65089459 G|A: MODIFIER: 3_prime_UTR_variant
RPE-21-3-c2,CENPBD1P1,chr19 59093484 G|T: MODIFIER: non_coding_exon_variant
RPE-21-3-c2,CFAP97,chr4 186112111 G|A: LOW: synonymous_variant
RPE-21-3-c2,CHD2,chr15 93557954 G|C: MODERATE: missense_variant
RPE-21-3-c2,CHRNB1,chr17 7360110 T|C: MODIFIER: 3_prime_UTR_variant
RPE-21-3-c2,CHST15,chr10 125768032 C|T: MODIFIER: 3_prime_UTR_variant
RPE-21-3-c2,COL18A1,chr21 46908355 T|C: LOW: synonymous_variant; chr21 46929467 G|A: LOW: synonymous_variant
RPE-21-3-c2,COL6A1,chr21 47401760 C|G: MODIFIER: 5_prime_UTR_variant; chr21 47410931 T|C: LOW: synonymous_variant; chr21 47424187 A|G: MODIFIER: 3_prime_UTR_variant; chr21 47424346 A|G: MODIFIER: 3_prime_UTR_variant
RPE-21-3-c2,COL6A2,chr21 47538960 G|A: MODERATE: missense_variant; chr21 47545768 G|A: MODERATE: missense_variant; chr21 47545823 G|A: LOW: synonymous_variant; chr21 47545826 C|T: LOW: synonymous_variant; chr21 47545913 G|A: LOW: synonymous_variant; chr21 47549629 T|A: MODIFIER: 3_prime_UTR_variant
RPE-21-3-c2,CTSZ,chr20 57570568 G|A: MODIFIER: 3_prime_UTR_variant; chr20 57572675 A|G: LOW: synonymous_variant
RPE-21-3-c2,CTU2,chr16 88781125 T|C: LOW: synonymous_variant
RPE-21-3-c2,DNAJB12,chr10 74094665 T|C: MODIFIER: 3_prime_UTR_variant
RPE-21-3-c2,DSCR3,chr21 38596160 AT|A: MODIFIER: 3_prime_UTR_variant
RPE-21-3-c2,DTYMK,chr2 242630048 G|A: MODIFIER: upstream_gene_variant
RPE-21-3-c2,EIF2AK4,chr15 40226495 T|C: LOW: synonymous_variant
RPE-21-3-c2,FBXL18,chr7 5515624 T|G: MODIFIER: 3_prime_UTR_variant
RPE-21-3-c2,FGF2,chr4 123817175 T|C: MODIFIER: 3_prime_UTR_variant
RPE-21-3-c2,GAA,chr17 78092063 G|A: LOW: synonymous_variant; chr17 78093221 G|A: MODIFIER: 3_prime_UTR_variant
RPE-21-3-c2,GARS,chr7 30673512 TA|T: MODIFIER: 3_prime_UTR_variant
RPE-21-3-c2,GOLGB1,chr3 121415610 G|A: MODERATE: missense_variant
RPE-21-3-c2,HMHA1,chr19 1086787 C|T: MODIFIER: 3_prime_UTR_variant
RPE-21-3-c2,HSDL1,chr16 84156280 C|G: MODIFIER: 3_prime_UTR_variant
RPE-21-3-c2,IFNGR2,chr21 34809693 C|T: MODIFIER: 3_prime_UTR_variant
RPE-21-3-c2,INAFM1,chr19 47778857 C|G: MODIFIER: 3_prime_UTR_variant
RPE-21-3-c2,ITGA11,chr15 68594393 AGTGT|A: MODIFIER: 3_prime_UTR_variant; chr15 68594522 G|A: MODIFIER: 3_prime_UTR_variant; chr15 68594861 G|A: MODIFIER: 3_prime_UTR_variant
RPE-21-3-c2,JOSD2,chr19 51009320 C|T: MODIFIER: 3_prime_UTR_variant
RPE-21-3-c2,KCTD2,chr17 73061796 G|A: MODIFIER: 3_prime_UTR_variant
RPE-21-3-c2,LMOD1,chr1 201865763 A|G: MODIFIER: 3_prime_UTR_variant
RPE-21-3-c2,LOC100507420,chr8 37278911 C|G: MODIFIER: non_coding_exon_variant
RPE-21-3-c2,LOC730101,chr6 52530205 C|T: MODIFIER: non_coding_exon_variant
RPE-21-3-c2,LRCH4,chr7 100172495 G|A: MODIFIER: 3_prime_UTR_variant
RPE-21-3-c2,LRRFIP1,chr2 238688244 A|G: MODIFIER: 3_prime_UTR_variant
RPE-21-3-c2,LUZP1,chr1 23419261 G|A: LOW: synonymous_variant
RPE-21-3-c2,MAFG,chr17 79879861 A|C: MODIFIER: 3_prime_UTR_variant
RPE-21-3-c2,MAPK8IP3,chr16 1819433 G|A: MODIFIER: 3_prime_UTR_variant
RPE-21-3-c2,MSRA,chr8 10285825 T|G: MODIFIER: 3_prime_UTR_variant
RPE-21-3-c2,MYADM,chr19 54378789 C|G: MODIFIER: 3_prime_UTR_variant
RPE-21-3-c2,NAV2,chr11 20139937 C|T: MODIFIER: 3_prime_UTR_variant
RPE-21-3-c2,NINJ1,chr9 95884501 A|G: MODIFIER: 3_prime_UTR_variant
RPE-21-3-c2,OBSL1,chr2 220420785 G|A: LOW: synonymous_variant; chr2 220420956 A|G: LOW: synonymous_variant; chr2 220427395 G|A: LOW: splice_region_variant&synonymous_variant
RPE-21-3-c2,PCK2,chr14 24572932 G|A: MODERATE: missense_variant
RPE-21-3-c2,PDE6D,chr2 232597475 T|C: MODIFIER: 3_prime_UTR_variant
RPE-21-3-c2,PDPR,chr16 70195382 G|A: MODIFIER: downstream_gene_variant
RPE-21-3-c2,PDXK,chr21 45176304 T|C: MODIFIER: 3_prime_UTR_variant
RPE-21-3-c2,PLEKHO2,chr15 65159797 T|G: MODIFIER: 3_prime_UTR_variant
RPE-21-3-c2,PLXNA4,chr7 131808573 G|A: MODIFIER: 3_prime_UTR_variant; chr7 131809176 G|A: MODIFIER: 3_prime_UTR_variant; chr7 131812922 T|C: MODIFIER: 3_prime_UTR_variant
RPE-21-3-c2,POLR1D,chr13 28241123 A|G: MODIFIER: 3_prime_UTR_variant
RPE-21-3-c2,PPAP2B,chr1 56961354 T|C: MODIFIER: 3_prime_UTR_variant
RPE-21-3-c2,PRKCA,chr17 64801021 A|G: MODIFIER: 3_prime_UTR_variant
RPE-21-3-c2,PTPN14,chr1 214529786 A|G: MODIFIER: 3_prime_UTR_variant
RPE-21-3-c2,PTTG1IP,chr21 46269753 A|G: MODIFIER: 3_prime_UTR_variant; chr21 46270196 A|G: MODIFIER: 3_prime_UTR_variant; chr21 46270376 G|C: MODIFIER: 3_prime_UTR_variant; chr21 46271452 C|T: MODERATE: missense_variant
RPE-21-3-c2,PYROXD2,chr10 100148176 A|G: MODERATE: missense_variant
RPE-21-3-c2,RAB3B,chr1 52381363 GTTT|G: MODIFIER: 3_prime_UTR_variant
RPE-21-3-c2,RBPJ,chr4 26417136 T|C: LOW: synonymous_variant
RPE-21-3-c2,REEP2,chr5 137782115 T|G: MODIFIER: 3_prime_UTR_variant; chr5 137782204 A|C: MODIFIER: 3_prime_UTR_variant; chr5 137782335 G|A: MODIFIER: 3_prime_UTR_variant
RPE-21-3-c2,RPAIN,chr17 5326145 C|G: MODERATE: missense_variant
RPE-21-3-c2,RPS29,chr14 50044392 T|C: MODIFIER: 3_prime_UTR_variant
RPE-21-3-c2,RPS6KB2,chr11 67200819 C|T: LOW: synonymous_variant
RPE-21-3-c2,RRNAD1,chr1 156706559 A|C: MODIFIER: 3_prime_UTR_variant
RPE-21-3-c2,RTEL1,chr20 62322288 T|C: LOW: synonymous_variant
RPE-21-3-c2,RUFY1,chr5 179036608 T|A: MODIFIER: 3_prime_UTR_variant
RPE-21-3-c2,SERTAD3,chr19 40946961 C|G: MODIFIER: 3_prime_UTR_variant
RPE-21-3-c2,SERTAD4,chr1 210407031 G|T: MODIFIER: intron_variant
RPE-21-3-c2,SGPL1,chr10 72639136 ATG|A: MODIFIER: 3_prime_UTR_variant
RPE-21-3-c2,SIM2,chr21 38117040 G|A: LOW: synonymous_variant; chr21 38117308 C|A: MODERATE: missense_variant; chr21 38120549 C|G: MODIFIER: 3_prime_UTR_variant; chr21 38120718 G|A: MODIFIER: 3_prime_UTR_variant; chr21 38121537 T|C: MODIFIER: 3_prime_UTR_variant
RPE-21-3-c2,SLC4A3,chr2 220506522 G|A: MODIFIER: 3_prime_UTR_variant
RPE-21-3-c2,SPOCD1,chr1 32256086 T|C: MODIFIER: 3_prime_UTR_variant
RPE-21-3-c2,STK40,chr1 36807481 C|T: MODERATE: missense_variant
RPE-21-3-c2,SYT1,chr12 79611374 C|T: LOW: synonymous_variant
RPE-21-3-c2,TCP11L1,chr11 33094059 C|T: MODERATE: missense_variant
RPE-21-3-c2,TLN1,chr9 35697081 C|A: MODIFIER: downstream_gene_variant
RPE-21-3-c2,TMEM14A,chr6 52533201 TA|T: MODIFIER: upstream_gene_variant; chr6 52533524 C|T: MODIFIER: upstream_gene_variant; chr6 52533551 T|C: MODIFIER: upstream_gene_variant
RPE-21-3-c2,TMEM44,chr3 194308934 C|T: MODIFIER: 3_prime_UTR_variant
RPE-21-3-c2,TMEM50B,chr21 34821648 CAA|C: MODIFIER: 3_prime_UTR_variant; chr21 34821691 G|C: MODIFIER: 3_prime_UTR_variant
RPE-21-3-c2,TNS1,chr2 218664633 T|G: MODIFIER: 3_prime_UTR_variant; chr2 218665047 T|G: MODIFIER: 3_prime_UTR_variant
RPE-21-3-c2,TSPAN10,chr17 79615572 A|G: MODIFIER: 3_prime_UTR_variant
RPE-21-3-c2,UBE2G2,chr21 46189286 G|C: MODIFIER: 3_prime_UTR_variant; chr21 46189767 G|A: MODIFIER: 3_prime_UTR_variant; chr21 46191270 C|T: MODIFIER: 3_prime_UTR_variant
RPE-21-3-c2,USP40,chr2 234394487 G|A: MODERATE: missense_variant
RPE-21-3-c2,USP8,chr15 50773755 G|A: LOW: synonymous_variant
RPE-21-3-c2,VCAN,chr5 82875800 C|T: LOW: splice_region_variant&synonymous_variant
RPE-21-3-c2,WDR60,chr7 158672619 A|G: MODERATE: missense_variant
RPE-21-3-c2,WDR62,chr19 36594659 A|T: MODERATE: missense_variant
RPE-21-3-c2,ZMAT3,chr3 178742044 T|C: MODIFIER: 3_prime_UTR_variant
RPE-21-3-c2,ZNF76,chr6 35263241 G|A: MODIFIER: 3_prime_UTR_variant
