FBgen	converted	FBgenNew	gene
FBgn0082172	FBgn0262432	FBgn0262432	mir-8
FBgn0261241	FBgn0285911	FBgn0285911	Vps16A
FBgn0261606	FBgn0285948	FBgn0285948	RpL27A
FBgn0052456	FBgn0266585	FBgn0266585	tRNA:Leu-CAG-1-8
FBgn0082182	FBgn0262424	FBgn0262424	mir-10
FBgn0082170	FBgn0262462	FBgn0262462	mir-iab-4
FBgn0260473	FBgn0262406	FBgn0262406	let-7
FBgn0084688	unknown ID	-	-
FBgn0052500	FBgn0285970	FBgn0285970	CG32500
FBgn0058042	FBgn0267976	FBgn0267976	Tim23
FBgn0082171	FBgn0262462	FBgn0262462	mir-iab-4
FBgn0259147	unknown ID	-	-
FBgn0084245	unknown ID	-	-
FBgn0054023	FBgn0283627	FBgn0283627	CR46300
FBgn0053678	FBgn0283440	FBgn0283440	solo
FBgn0058196	FBgn0267861	FBgn0267861	Maf1
FBgn0261593	FBgn0285947	FBgn0285947	RpS10b
FBgn0266375	FBgn0283680	FBgn0283680	IP3K2
FBgn0085388	FBgn0283680	FBgn0283680	IP3K2
FBgn0053139	FBgn0284254	FBgn0284254	Impbeta11
FBgn0262735	FBgn0285926	FBgn0285926	Imp
FBgn0085293	FBgn0284444	FBgn0284444	ddbt
FBgn0067697	FBgn0262385	FBgn0262385	mir-307a
FBgn0053123	FBgn0284253	FBgn0284253	LeuRS
FBgn0086899	FBgn0283657	FBgn0283657	Tlk
FBgn0067717	FBgn0266076	FBgn0266076	mir-276a
FBgn0261362	FBgn0283437	FBgn0283437	PPO1
FBgn0082173	FBgn0262414	FBgn0262414	mir-4
FBgn0067711	FBgn0286006	FBgn0286006	mir-281-1
FBgn0262742	FBgn0285925	FBgn0285925	Fas1
FBgn0264255	FBgn0285944	FBgn0285944	para
FBgn0260241	FBgn0266195	FBgn0266195	Tgs1
FBgn0086901	FBgn0285955	FBgn0285955	cv-c
FBgn0086606	FBgn0286006	FBgn0286006	mir-281-1
FBgn0061355	FBgn0283508	FBgn0283508	nw
FBgn0261548	FBgn0283741	FBgn0283741	prage
FBgn0067688	FBgn0262417	FBgn0262417	mir-316
FBgn0064191	FBgn0262451	FBgn0262451	ban
FBgn0061354	FBgn0283508	FBgn0283508	nw
FBgn0064159	FBgn0262456	FBgn0262456	mir-125
FBgn0262720	FBgn0283508	FBgn0283508	nw
FBgn0260460	FBgn0285951	FBgn0285951	mRpS34
FBgn0064160	FBgn0262463	FBgn0262463	mir-100
FBgn0260992	FBgn0267975	FBgn0267975	vib
FBgn0052372	FBgn0268063	FBgn0268063	ltl
FBgn0067710	FBgn0286007	FBgn0286007	mir-281-2
FBgn0067718	FBgn0266076	FBgn0266076	mir-276a
FBgn0082174	FBgn0262401	FBgn0262401	mir-285
FBgn0085056	unknown ID	-	-
FBgn0067709	FBgn0262368	FBgn0262368	mir-282
FBgn0250876	FBgn0284221	FBgn0284221	Sema5c
FBgn0261613	FBgn0284250	FBgn0284250	Oaz
FBgn0262468	FBgn0267975	FBgn0267975	vib
FBgn0262262	FBgn0285993	FBgn0285993	hpRNA:CR46343
FBgn0262394	FBgn0286006	FBgn0286006	mir-281-1
FBgn0260993	FBgn0285944	FBgn0285944	para
FBgn0086377	FBgn0267849	FBgn0267849	Syx7
FBgn0085364	FBgn0267910	FBgn0267910	MRE16
FBgn0262423	FBgn0286007	FBgn0286007	mir-281-2
FBgn0259719	FBgn0265968	FBgn0265968	Tfb5
FBgn0262526	FBgn0283440	FBgn0283440	solo
FBgn0262526	FBgn0283442	FBgn0283442	vas
FBgn0054053	FBgn0252006	FBgn0252006	Dere\tRNA:GG25549
FBgn0261451	FBgn0284408	FBgn0284408	trol
FBgn0086607	FBgn0286007	FBgn0286007	mir-281-2
FBgn0085814	FBgn0267861	FBgn0267861	Maf1
FBgn0261359	FBgn0266136	FBgn0266136	Gyc76C
FBgn0261815	FBgn0265607	FBgn0265607	beat-IIIa
FBgn0261882	FBgn0283659	FBgn0283659	THG
FBgn0038220	FBgn0285913	FBgn0285913	red
FBgn0042650	FBgn0285879	FBgn0285879	disco-r
FBgn0040625	unknown ID	-	-
FBgn0036615	FBgn0283681	FBgn0283681	Tcs3
FBgn0034732	unknown ID	-	-
FBgn0034967	FBgn0285952	FBgn0285952	eEF5
FBgn0036904	FBgn0262516	FBgn0262516	Trpml
FBgn0042174	FBgn0285991	FBgn0285991	hpRNA:CR18854
FBgn0051544	FBgn0283627	FBgn0283627	CR46300
FBgn0036017	FBgn0267796	FBgn0267796	Tmc
FBgn0050459	FBgn0263033	FBgn0263033	CG43328
FBgn0050459	FBgn0263032	FBgn0263032	CG43327
FBgn0046815	FBgn0262432	FBgn0262432	mir-8
FBgn0040284	FBgn0283477	FBgn0283477	SF2
FBgn0034794	FBgn0267823	FBgn0267823	Gmer
FBgn0039255	FBgn0285912	FBgn0285912	mah
FBgn0036064	FBgn0263251	FBgn0263251	vnc
FBgn0038762	FBgn0270925	FBgn0270925	CG4836
FBgn0035195	FBgn0283500	FBgn0283500	Sac1
FBgn0035765	FBgn0264303	FBgn0264303	CG43781
FBgn0035765	FBgn0264302	FBgn0264302	CG43780
FBgn0037083	FBgn0283479	FBgn0283479	Alp1
FBgn0047133	FBgn0266492	FBgn0266492	SclB
FBgn0047133	FBgn0266491	FBgn0266491	SclA
FBgn0034979	FBgn0264299	FBgn0264299	CG43777
FBgn0034979	FBgn0264297	FBgn0264297	CG43775
FBgn0034979	FBgn0264298	FBgn0264298	CG43776
FBgn0041607	FBgn0270926	FBgn0270926	AsnS
FBgn0036013	FBgn0267796	FBgn0267796	Tmc
FBgn0050118	FBgn0284257	FBgn0284257	Ttd14
FBgn0046820	FBgn0262408	FBgn0262408	mir-5
FBgn0034711	FBgn0283480	FBgn0283480	Alp2
FBgn0050007	FBgn0285892	FBgn0285892	tea
FBgn0036546	FBgn0283649	FBgn0283649	elgi
FBgn0051728	FBgn0284244	FBgn0284244	l(2)k05911
FBgn0051392	FBgn0261680	FBgn0261680	CG42727
FBgn0051392	FBgn0261679	FBgn0261679	CG42726
FBgn0033939	FBgn0284250	FBgn0284250	Oaz
FBgn0034133	FBgn0285943	FBgn0285943	knon
FBgn0041203	FBgn0283712	FBgn0283712	LIMK1
FBgn0035002	unknown ID	-	-
FBgn0041161	FBgn0283709	FBgn0283709	blue
FBgn0041161	FBgn0283503	FBgn0283503	Neurl4
FBgn0033835	FBgn0283462	FBgn0283462	IMPPP
FBgn0035411	FBgn0283724	FBgn0283724	Girdin
FBgn0039874	FBgn0270927	FBgn0270927	betaGlu
FBgn0046819	FBgn0262464	FBgn0262464	mir-6-1
FBgn0034374	FBgn0265627	FBgn0265627	CG44435
FBgn0034374	FBgn0265626	FBgn0265626	CG44434
FBgn0050260	FBgn0266573	FBgn0266573	tRNA:Thr-TGT-2-3
FBgn0046821	FBgn0262414	FBgn0262414	mir-4
FBgn0039127	FBgn0264741	FBgn0264741	CG43999
FBgn0050505	FBgn0266574	FBgn0266574	tRNA:Thr-TGT-2-4
FBgn0033938	FBgn0284250	FBgn0284250	Oaz
FBgn0038111	FBgn0283439	FBgn0283439	CG46281
FBgn0038111	FBgn0283438	FBgn0283438	CG46280
FBgn0051600	FBgn0283728	FBgn0283728	CG31600
FBgn0034089	FBgn0265178	FBgn0265178	CG44243
FBgn0036169	FBgn0285958	FBgn0285958	Fuca
FBgn0033937	FBgn0284250	FBgn0284250	Oaz
FBgn0046833	FBgn0262424	FBgn0262424	mir-10
FBgn0027559	FBgn0283467	FBgn0283467	Pol32
FBgn0032359	FBgn0283678	FBgn0283678	Osi21
FBgn0032502	FBgn0264301	FBgn0264301	CG43779
FBgn0031674	FBgn0264743	FBgn0264743	CG44001
FBgn0031674	FBgn0264742	FBgn0264742	CG44000
FBgn0026753	FBgn0283536	FBgn0283536	Vha13
FBgn0028925	FBgn0283659	FBgn0283659	THG
FBgn0020766	FBgn0275436	FBgn0275436	PheRS-m
FBgn0029584	FBgn0283451	FBgn0283451	br
FBgn0010381	FBgn0283461	FBgn0283461	Drs
FBgn0031308	FBgn0283525	FBgn0283525	l(2)10685
FBgn0000556	FBgn0284245	FBgn0284245	eEF1alpha1
FBgn0011764	FBgn0278608	FBgn0278608	Dsp1
FBgn0022246	FBgn0283652	FBgn0283652	Rpp30
FBgn0025806	FBgn0283666	FBgn0283666	Rap2l
FBgn0019886	FBgn0284252	FBgn0284252	Letm1
FBgn0027605	FBgn0283469	FBgn0283469	Vps4
FBgn0000054	FBgn0284249	FBgn0284249	Adf1
FBgn0022708	FBgn0283494	FBgn0283494	Adk2
FBgn0033162	FBgn0283450	FBgn0283450	Glo1
FBgn0030646	FBgn0267977	FBgn0267977	mh
FBgn0015562	FBgn0265195	FBgn0265195	veg
FBgn0000413	FBgn0267821	FBgn0267821	da
FBgn0000210	FBgn0283451	FBgn0283451	br
FBgn0022720	FBgn0270924	FBgn0270924	zf30C
FBgn0029128	FBgn0284435	FBgn0284435	tyn
FBgn0025286	FBgn0285949	FBgn0285949	RpL31
FBgn0026781	FBgn0263121	FBgn0263121	Prosalpha1
FBgn0028906	FBgn0283651	FBgn0283651	CG46301
FBgn0032367	FBgn0267327	FBgn0267327	Acp33A
FBgn0013809	FBgn0283476	FBgn0283476	Dhc16F
FBgn0004462	FBgn0283473	FBgn0283473	S6KL
FBgn0032627	FBgn0265607	FBgn0265607	beat-IIIa
FBgn0033059	FBgn0284246	FBgn0284246	l(2)k09848
FBgn0033466	FBgn0283510	FBgn0283510	Pal1
FBgn0028665	FBgn0285910	FBgn0285910	VhaAC39-1
FBgn0021953	FBgn0267828	FBgn0267828	Fatp
FBgn0032340	FBgn0283682	FBgn0283682	Ge-1
FBgn0015806	FBgn0283472	FBgn0283472	S6k
FBgn0032926	FBgn0263051	FBgn0263051	CG43346
FBgn0031035	FBgn0285947	FBgn0285947	RpS10b
FBgn0031783	FBgn0261683	FBgn0261683	B9d2
FBgn0031783	FBgn0261697	FBgn0261697	tctn
FBgn0016792	FBgn0278604	FBgn0278604	dmt
FBgn0024977	FBgn0283545	FBgn0283545	vilya
FBgn0024332	FBgn0284442	FBgn0284442	Mcm3
FBgn0001337	FBgn0267331	FBgn0267331	l(1)1Bb
FBgn0031912	FBgn0283658	FBgn0283658	muc
FBgn0030758	FBgn0267912	FBgn0267912	CanA-14F
FBgn0004028	FBgn0283471	FBgn0283471	wupA
FBgn0019948	FBgn0283509	FBgn0283509	Phm
FBgn0031464	FBgn0283531	FBgn0283531	Duox
FBgn0029173	FBgn0285971	FBgn0285971	prg
FBgn0003732	FBgn0284220	FBgn0284220	Top2
FBgn0028904	FBgn0283651	FBgn0283651	CG46301
FBgn0011571	FBgn0285954	FBgn0285954	caz
FBgn0030852	FBgn0267967	FBgn0267967	corolla
FBgn0015323	FBgn0270928	FBgn0270928	VAChT
FBgn0033342	FBgn0284436	FBgn0284436	CCT8
FBgn0031376	FBgn0267972	FBgn0267972	Der-1
FBgn0010410	FBgn0285948	FBgn0285948	RpL27A
FBgn0019947	FBgn0284421	FBgn0284421	Psn
FBgn0032679	FBgn0284256	FBgn0284256	bsf
FBgn0003887	FBgn0284243	FBgn0284243	betaTub56D
FBgn0031781	FBgn0284255	FBgn0284255	Arpc4
FBgn0000634	FBgn0285925	FBgn0285925	Fas1
FBgn0027571	FBgn0283427	FBgn0283427	FASN1
FBgn0001332	FBgn0267825	FBgn0267825	L
FBgn0001332	FBgn0267824	FBgn0267824	PRAS40
FBgn0030235	FBgn0285926	FBgn0285926	Imp
FBgn0000497	FBgn0284247	FBgn0284247	ds
FBgn0000099	FBgn0267978	FBgn0267978	ap
FBgn0016700	FBgn0285937	FBgn0285937	Rab1
FBgn0032915	FBgn0284251	FBgn0284251	l(2)05287
FBgn0013984	FBgn0283499	FBgn0283499	InR
FBgn0011241	FBgn0285964	FBgn0285964	ms(2)05704
FBgn0011241	FBgn0285962	FBgn0285962	CG46338
FBgn0030469	FBgn0283680	FBgn0283680	IP3K2
FBgn0020439	FBgn0266451	FBgn0266451	fau
FBgn0005630	FBgn0283521	FBgn0283521	lola
FBgn0023423	FBgn0283468	FBgn0283468	slmb
FBgn0025117	FBgn0283478	FBgn0283478	und
FBgn0010575	FBgn0285917	FBgn0285917	sbb
FBgn0005592	FBgn0285896	FBgn0285896	btl
FBgn0004009	FBgn0284084	FBgn0284084	wg
FBgn0015324	FBgn0283535	FBgn0283535	Vha26
FBgn0015541	FBgn0285963	FBgn0285963	CG46339
FBgn0003970	FBgn0283442	FBgn0283442	vas
FBgn0000409	FBgn0284248	FBgn0284248	Cyt-c-p
FBgn0030591	unknown ID	-	-
FBgn0002607	FBgn0285950	FBgn0285950	RpL19
