FbgnID;Row.names;baseMean;log2FoldChange;lfcSE;stat;pvalue;padj;FBgen;entrez;gene_symbol;20328_Fal_IFM_30h_A_bamGATCAG_trimmed.sorted.bam.x;20329_Fal_IFM_30h_B_bamTAGCTT_trimmed.sorted.bam.x;20332_IFMWT30h_A_bamGGCTAC_trimmed.sorted.bam.x;RNAseq_IFM_30h_B_bam_trimmed.sorted.bam.x;20328_Fal_IFM_30h_A_bamGATCAG_trimmed.sorted.bam.y;20329_Fal_IFM_30h_B_bamTAGCTT_trimmed.sorted.bam.y;20332_IFMWT30h_A_bamGGCTAC_trimmed.sorted.bam.y;RNAseq_IFM_30h_B_bam_trimmed.sorted.bam.y
FBgn0051683;FBgn0051683;17,1338123976818;2,54319840105155;0,701691167008649;3,62438423144665;0,000289650725727532;0,0459989159364285;FBgn0051683;261623;CG31683;27;30;0;1;23;45;0;1
FBgn0039429;FBgn0039429;21,8004308913333;-2,57994245767249;0,693605482486587;-3,71961082029421;0,000199529987188542;0,035172192518663;FBgn0039429;43195;CG14238;1;1;41;59;1;1;41;44
;;;;;;;;;;;;;;;;;;
;;;;;;;;;;;;;;;;;;
;;;;;;;;;;;;;;;;;;
;;;;;;;;;;;;;;;;;;
;;;;;;;;;;;;;;;;;;
;;;;;;;;;;;;;;;;;;
;;;;;;;;;;;;;;;;;;